sim/test_top.vcd
$date
	Sun Dec 28 12:22:58 2025
$end
$version
	Icarus Verilog
$end
$timescale
	1ns
$end
$scope module Testbench $end
$var wire 32 ! data_R [31:0] $end
$var wire 32 " data_M [31:0] $end
$var wire 32 # addr_M [31:0] $end
$var reg 5 $ add_R [4:0] $end
$var reg 1 % clk $end
$var reg 1 & rst_n $end
$var integer 32 ' cycle_count [31:0] $end
$var integer 32 ( errors [31:0] $end
$var integer 32 ) i [31:0] $end
$var integer 32 * log_file [31:0] $end
$scope module uut $end
$var wire 1 + Miss_Prediction $end
$var wire 5 , add_R [4:0] $end
$var wire 32 - addr_M [31:0] $end
$var wire 1 % clk $end
$var wire 32 . data_M [31:0] $end
$var wire 32 / data_R [31:0] $end
$var wire 1 & rst_n $end
$var wire 1 0 zero_EX_MEM $end
$var wire 1 1 zero $end
$var wire 32 2 word_ID_EX [31:0] $end
$var wire 32 3 word [31:0] $end
$var wire 26 4 target [25:0] $end
$var wire 5 5 rs2_IF_ID [4:0] $end
$var wire 5 6 rs2_ID_EX [4:0] $end
$var wire 5 7 rs1_IF_ID [4:0] $end
$var wire 5 8 rs1_ID_EX [4:0] $end
$var wire 32 9 result_EX_MEM [31:0] $end
$var wire 32 : result [31:0] $end
$var wire 32 ; read_data2_ID_EX [31:0] $end
$var wire 32 < read_data2 [31:0] $end
$var wire 32 = read_data1_ID_EX [31:0] $end
$var wire 32 > read_data1 [31:0] $end
$var wire 5 ? rd_MEM_WB [4:0] $end
$var wire 5 @ rd_IF_ID [4:0] $end
$var wire 5 A rd_ID_EX_mux [4:0] $end
$var wire 5 B rd_ID_EX [4:0] $end
$var wire 5 C rd_EX_MEM [4:0] $end
$var wire 32 D out_mux_f2 [31:0] $end
$var wire 32 E oprd2 [31:0] $end
$var wire 32 F oprd1 [31:0] $end
$var wire 1 G jr $end
$var wire 1 H jal $end
$var wire 6 I funct_IF_ID [5:0] $end
$var wire 6 J funct_ID_EX [5:0] $end
$var wire 32 K Write_Data_EX_MEM [31:0] $end
$var wire 32 L Write_Data [31:0] $end
$var wire 32 M Result_MEM_WB [31:0] $end
$var wire 1 N Reg_Write_MEM_WB $end
$var wire 1 O Reg_Write_ID_EX $end
$var wire 1 P Reg_Write_EX_MEM $end
$var wire 1 Q Reg_Write $end
$var wire 1 R RegDst_ID_EX $end
$var wire 1 S RegDst $end
$var wire 32 T Read_Data_MEM_WB [31:0] $end
$var wire 32 U Read_Data [31:0] $end
$var wire 1 V Predict_Taken_IF_ID $end
$var wire 1 W Predict_Taken_ID_EX $end
$var wire 1 X Predict_Taken_EX_MEM $end
$var wire 1 Y Pcsrc $end
$var wire 32 Z Pc_out [31:0] $end
$var wire 32 [ Pc_4_IF_ID [31:0] $end
$var wire 32 \ Pc_4 [31:0] $end
$var wire 1 ] PcSrc_ID_EX $end
$var wire 1 ^ PcSrc_EX_MEM $end
$var wire 1 _ PcSrc $end
$var wire 32 ` PC_ID_EX [31:0] $end
$var wire 32 a PC_Branch_EX_MEM [31:0] $end
$var wire 32 b PC_Branch [31:0] $end
$var wire 32 c PC_4_EX_MEM [31:0] $end
$var wire 6 d Opcode_IF_ID [5:0] $end
$var wire 1 e Mem_to_Reg_MEM_WB $end
$var wire 1 f Mem_to_Reg_ID_EX $end
$var wire 1 g Mem_to_Reg_EX_MEM $end
$var wire 1 h Mem_to_Reg $end
$var wire 1 i Mem_Write_ID_EX $end
$var wire 1 j Mem_Write_EX_MEM $end
$var wire 1 k Mem_Write $end
$var wire 1 l Mem_Read_ID_EX $end
$var wire 1 m Mem_Read_EX_MEM $end
$var wire 1 n Mem_Read $end
$var wire 1 o LU_hazard $end
$var wire 1 p Jump $end
$var wire 32 q Instruction [31:0] $end
$var wire 16 r Imediate_IF_ID [15:0] $end
$var wire 2 s F2 [1:0] $end
$var wire 2 t F1 [1:0] $end
$var wire 1 u Extend_sel $end
$var wire 32 v Correct_Address [31:0] $end
$var wire 32 w BTB_Predicted_Target [31:0] $end
$var wire 1 x BTB_Predict_Taken $end
$var wire 4 y ALU_Operation [3:0] $end
$var wire 1 z ALUSrc_ID_EX $end
$var wire 1 { ALUSrc $end
$var wire 4 | ALUOp_ID_EX [3:0] $end
$var wire 4 } ALUOp [3:0] $end
$scope module ALU_Branch_uut $end
$var wire 32 ~ PC_ID_EX [31:0] $end
$var wire 32 !" PC_Branch [31:0] $end
$var wire 32 "" Immediate [31:0] $end
$upscope $end
$scope module ALU_Control_uut $end
$var wire 6 #" funct [5:0] $end
$var wire 4 $" ALUOp [3:0] $end
$var reg 4 %" ALU_Operation [3:0] $end
$upscope $end
$scope module ALU_pc_uut $end
$var wire 32 &" Pc_out [31:0] $end
$var wire 32 '" Pc_4 [31:0] $end
$upscope $end
$scope module ALU_uut $end
$var wire 4 (" ALU_Operation [3:0] $end
$var wire 32 )" oprd2 [31:0] $end
$var wire 32 *" oprd1 [31:0] $end
$var reg 32 +" result [31:0] $end
$var reg 1 1 zero $end
$upscope $end
$scope module BTB_uut $end
$var wire 32 ," PC_Update [31:0] $end
$var wire 1 % clk $end
$var wire 1 & rst_n $end
$var wire 24 -" write_tag [23:0] $end
$var wire 6 ." write_index [5:0] $end
$var wire 24 /" read_tag [23:0] $end
$var wire 6 0" read_index [5:0] $end
$var wire 1 ^ is_Branch $end
$var wire 32 1" PC_IF [31:0] $end
$var wire 32 2" Actual_Target [31:0] $end
$var wire 1 Y Actual_Taken $end
$var reg 1 x Predict_Taken $end
$var reg 32 3" Predicted_Target [31:0] $end
$var reg 2 4" current_state [1:0] $end
$var reg 2 5" next_state [1:0] $end
$var integer 32 6" i [31:0] $end
$upscope $end
$scope module Control_unit_uut $end
$var wire 6 7" Opcode_IF_ID [5:0] $end
$var reg 4 8" ALUOp [3:0] $end
$var reg 1 { ALUSrc $end
$var reg 1 u Extend_sel $end
$var reg 1 p Jump $end
$var reg 1 n Mem_Read $end
$var reg 1 k Mem_Write $end
$var reg 1 h Mem_to_Reg $end
$var reg 1 _ PcSrc $end
$var reg 1 S RegDst $end
$var reg 1 Q Reg_Write $end
$upscope $end
$scope module Data_mem_uut $end
$var wire 1 % clk $end
$var wire 32 9" result_EX_MEM [31:0] $end
$var wire 32 :" Write_Data_EX_MEM [31:0] $end
$var wire 32 ;" Read_Data [31:0] $end
$var wire 1 j Mem_Write_EX_MEM $end
$var wire 1 m Mem_Read_EX_MEM $end
$upscope $end
$scope module EX_MEM_uut $end
$var wire 1 j Mem_Write_EX_MEM $end
$var wire 1 g Mem_to_Reg_EX_MEM $end
$var wire 32 <" PC_Branch [31:0] $end
$var wire 1 P Reg_Write_EX_MEM $end
$var wire 1 % clk $end
$var wire 5 =" rd_EX_MEM [4:0] $end
$var wire 5 >" rd_ID_EX_mux [4:0] $end
$var wire 32 ?" result [31:0] $end
$var wire 1 & rst_n $end
$var wire 1 1 zero $end
$var wire 1 0 zero_EX_MEM $end
$var wire 32 @" result_EX_MEM [31:0] $end
$var wire 32 A" Write_Data_EX_MEM [31:0] $end
$var wire 32 B" Write_Data [31:0] $end
$var wire 1 O Reg_Write_ID_EX $end
$var wire 1 W Predict_Taken_ID_EX $end
$var wire 1 X Predict_Taken_EX_MEM $end
$var wire 1 Y Pcsrc $end
$var wire 1 ] PcSrc_ID_EX $end
$var wire 1 ^ PcSrc_EX_MEM $end
$var wire 32 C" PC_ID_EX [31:0] $end
$var wire 32 D" PC_Branch_EX_MEM [31:0] $end
$var wire 32 E" PC_4_EX_MEM [31:0] $end
$var wire 1 f Mem_to_Reg_ID_EX $end
$var wire 1 i Mem_Write_ID_EX $end
$var wire 1 l Mem_Read_ID_EX $end
$var wire 1 m Mem_Read_EX_MEM $end
$var reg 1 m Mem_Read_r $end
$var reg 1 F" Mem_Write_r $end
$var reg 1 G" Mem_to_Reg_r $end
$var reg 32 H" PC_4_r [31:0] $end
$var reg 32 I" PC_Branch_r [31:0] $end
$var reg 1 ^ PcSrc_r $end
$var reg 1 X Predict_Taken_r $end
$var reg 1 J" Reg_Write_r $end
$var reg 32 K" Write_Data_r [31:0] $end
$var reg 5 L" rd_ID_EX_r [4:0] $end
$var reg 32 M" result_r [31:0] $end
$var reg 1 0 zero_r $end
$upscope $end
$scope module Enable_Branch_uut $end
$var wire 1 ^ PcSrc_EX_MEM $end
$var wire 1 Y Pcsrc $end
$var wire 1 0 zero_EX_MEM $end
$upscope $end
$scope module Forwarding_unit_uut $end
$var wire 1 P Reg_Write_EX_MEM $end
$var wire 5 N" rd_EX_MEM [4:0] $end
$var wire 5 O" rs2_ID_EX [4:0] $end
$var wire 5 P" rs1_ID_EX [4:0] $end
$var wire 5 Q" rd_MEM_WB [4:0] $end
$var wire 1 N Reg_Write_MEM_WB $end
$var reg 2 R" F1 [1:0] $end
$var reg 2 S" F2 [1:0] $end
$upscope $end
$scope module Hazard_detect_uut $end
$var wire 1 o LU_hazard $end
$var wire 5 T" rs2_IF_ID [4:0] $end
$var wire 5 U" rs2_ID_EX [4:0] $end
$var wire 5 V" rs1_IF_ID [4:0] $end
$var wire 1 l Mem_Read_ID_EX $end
$upscope $end
$scope module ID_EX_uut $end
$var wire 4 W" ALUOp [3:0] $end
$var wire 4 X" ALUOp_ID_EX [3:0] $end
$var wire 1 { ALUSrc $end
$var wire 1 n Mem_Read $end
$var wire 1 k Mem_Write $end
$var wire 1 i Mem_Write_ID_EX $end
$var wire 1 h Mem_to_Reg $end
$var wire 1 f Mem_to_Reg_ID_EX $end
$var wire 1 _ PcSrc $end
$var wire 1 ] PcSrc_ID_EX $end
$var wire 1 + Pcsrc $end
$var wire 1 W Predict_Taken_ID_EX $end
$var wire 1 S RegDst $end
$var wire 1 Q Reg_Write $end
$var wire 1 O Reg_Write_ID_EX $end
$var wire 1 % clk $end
$var wire 6 Y" funct_ID_EX [5:0] $end
$var wire 32 Z" read_data1_ID_EX [31:0] $end
$var wire 32 [" read_data2_ID_EX [31:0] $end
$var wire 5 \" rs1_ID_EX [4:0] $end
$var wire 1 & rst_n $end
$var wire 32 ]" word_ID_EX [31:0] $end
$var wire 32 ^" word [31:0] $end
$var wire 5 _" rs2_IF_ID [4:0] $end
$var wire 5 `" rs2_ID_EX [4:0] $end
$var wire 5 a" rs1_IF_ID [4:0] $end
$var wire 32 b" read_data2 [31:0] $end
$var wire 32 c" read_data1 [31:0] $end
$var wire 5 d" rd_IF_ID [4:0] $end
$var wire 5 e" rd_ID_EX [4:0] $end
$var wire 6 f" funct_IF_ID [5:0] $end
$var wire 1 R RegDst_ID_EX $end
$var wire 1 V Predict_Taken_IF_ID $end
$var wire 32 g" Pc_4_IF_ID [31:0] $end
$var wire 32 h" PC_ID_EX [31:0] $end
$var wire 1 l Mem_Read_ID_EX $end
$var wire 1 z ALUSrc_ID_EX $end
$var reg 4 i" ALUOp_r [3:0] $end
$var reg 1 z ALUSrc_r $end
$var reg 1 l Mem_Read_r $end
$var reg 1 j" Mem_Write_r $end
$var reg 1 k" Mem_to_Reg_r $end
$var reg 32 l" PC_r [31:0] $end
$var reg 1 m" PcSrc_r $end
$var reg 1 n" Predict_Taken_r $end
$var reg 1 R RegDst_r $end
$var reg 1 o" Reg_Write_r $end
$var reg 6 p" funct_r [5:0] $end
$var reg 5 q" rd_r [4:0] $end
$var reg 32 r" read_data1_r [31:0] $end
$var reg 32 s" read_data2_r [31:0] $end
$var reg 5 t" rs1_r [4:0] $end
$var reg 5 u" rs2_r [4:0] $end
$var reg 32 v" word_r [31:0] $end
$upscope $end
$scope module IF_ID_uut $end
$var wire 1 p Jump $end
$var wire 1 o LU_hazard $end
$var wire 32 w" Pc_out [31:0] $end
$var wire 1 + Pcsrc $end
$var wire 1 x Predict_Taken_IF $end
$var wire 1 % clk $end
$var wire 1 G jr $end
$var wire 1 & rst_n $end
$var wire 26 x" target [25:0] $end
$var wire 1 H jal $end
$var wire 32 y" Instruction [31:0] $end
$var reg 16 z" Imediate_IF_ID [15:0] $end
$var reg 6 {" Opcode_IF_ID [5:0] $end
$var reg 32 |" Pc_4_IF_ID [31:0] $end
$var reg 1 V Predict_Taken_IF_ID $end
$var reg 6 }" funct_IF_ID [5:0] $end
$var reg 5 ~" rd_IF_ID [4:0] $end
$var reg 5 !# rs1_IF_ID [4:0] $end
$var reg 5 "# rs2_IF_ID [4:0] $end
$upscope $end
$scope module Instruction_mem_uut $end
$var wire 1 + Pcsrc $end
$var wire 1 % clk $end
$var wire 1 & rst_n $end
$var wire 32 ## Pc_out [31:0] $end
$var reg 32 $# Instruction [31:0] $end
$upscope $end
$scope module MEM_WB_uut $end
$var wire 1 g Mem_to_Reg_EX_MEM $end
$var wire 32 %# Read_Data [31:0] $end
$var wire 1 P Reg_Write_EX_MEM $end
$var wire 1 % clk $end
$var wire 5 &# rd_EX_MEM [4:0] $end
$var wire 32 '# result_EX_MEM [31:0] $end
$var wire 1 & rst_n $end
$var reg 1 e Mem_to_Reg_MEM_WB $end
$var reg 32 (# Read_Data_MEM_WB [31:0] $end
$var reg 1 N Reg_Write_MEM_WB $end
$var reg 32 )# Result_MEM_WB [31:0] $end
$var reg 5 *# rd_MEM_WB [4:0] $end
$upscope $end
$scope module PC_uut $end
$var wire 32 +# Correct_Address [31:0] $end
$var wire 1 p Jump $end
$var wire 1 o LU_hazard $end
$var wire 1 + Miss_Prediction $end
$var wire 32 ,# Pc_4 [31:0] $end
$var wire 1 x Predict_Taken $end
$var wire 32 -# Predicted_Target [31:0] $end
$var wire 1 % clk $end
$var wire 1 H jal $end
$var wire 1 G jr $end
$var wire 1 & rst_n $end
$var wire 26 .# target [25:0] $end
$var reg 32 /# Pc_out [31:0] $end
$var reg 32 0# r_a [31:0] $end
$upscope $end
$scope module Reg_file_uut $end
$var wire 1 N Reg_Write_MEM_WB $end
$var wire 1 % clk $end
$var wire 5 1# rd_MEM_WB [4:0] $end
$var wire 5 2# rs1_IF_ID [4:0] $end
$var wire 5 3# rs2_IF_ID [4:0] $end
$var wire 1 & rst_n $end
$var wire 32 4# read_data2 [31:0] $end
$var wire 32 5# read_data1 [31:0] $end
$var wire 32 6# Write_Data [31:0] $end
$scope begin $ivl_for_loop0 $end
$var integer 32 7# i [31:0] $end
$upscope $end
$scope begin $ivl_for_loop1 $end
$var integer 32 8# i [31:0] $end
$upscope $end
$upscope $end
$scope module Sign_extend_uut $end
$var wire 1 u Extend_sel $end
$var wire 16 9# Imediate_IF_ID [15:0] $end
$var wire 32 :# word [31:0] $end
$upscope $end
$scope module mux_3x1_32bit_A_uut $end
$var wire 32 ;# data0 [31:0] $end
$var wire 32 <# data2 [31:0] $end
$var wire 2 =# sel [1:0] $end
$var wire 32 ># data1 [31:0] $end
$var reg 32 ?# data_out [31:0] $end
$upscope $end
$scope module mux_3x1_32bit_B_uut $end
$var wire 32 @# data0 [31:0] $end
$var wire 32 A# data2 [31:0] $end
$var wire 2 B# sel [1:0] $end
$var wire 32 C# data1 [31:0] $end
$var reg 32 D# data_out [31:0] $end
$upscope $end
$scope module mux_WB_uut $end
$var wire 1 e Mem_to_Reg_MEM_WB $end
$var wire 32 E# Read_Data_MEM_WB [31:0] $end
$var wire 32 F# Result_MEM_WB [31:0] $end
$var wire 32 G# Write_Data [31:0] $end
$upscope $end
$upscope $end
$upscope $end
$enddefinitions $end
$comment Show the parameter values. $end
$dumpall
$end
#0
$dumpvars
b0 G#
b0 F#
b0 E#
b0 D#
b0 C#
b0 B#
b0 A#
b0 @#
b0 ?#
b0 >#
b0 =#
b0 <#
b0 ;#
b0 :#
b0 9#
bx 8#
b100000 7#
b0 6#
b0 5#
b0 4#
b0 3#
b0 2#
b0 1#
b0 0#
b0 /#
b0 .#
b0 -#
b100 ,#
b0 +#
b0 *#
b0 )#
b0 (#
b0 '#
b0 &#
b0 %#
b0 $#
b0 ##
b0 "#
b0 !#
b0 ~"
b0 }"
b0 |"
b0 {"
b0 z"
b0 y"
b0 x"
b100 w"
b0 v"
b0 u"
b0 t"
b0 s"
b0 r"
b0 q"
b0 p"
0o"
0n"
0m"
b0 l"
0k"
0j"
b0 i"
b0 h"
b0 g"
b0 f"
b0 e"
b0 d"
b0 c"
b0 b"
b0 a"
b0 `"
b0 _"
b0 ^"
b0 ]"
b0 \"
b0 ["
b0 Z"
b0 Y"
b0 X"
b10 W"
b0 V"
b0 U"
b0 T"
b0 S"
b0 R"
b0 Q"
b0 P"
b0 O"
b0 N"
b0 M"
b0 L"
b0 K"
0J"
b0 I"
b0 H"
0G"
0F"
b0 E"
b0 D"
b0 C"
b0 B"
b0 A"
b0 @"
b0 ?"
b0 >"
b0 ="
b11111111111111111111111111111100 <"
b0 ;"
b0 :"
b0 9"
b10 8"
b0 7"
b1000000 6"
bx 5"
bx 4"
b0 3"
b0 2"
b0 1"
b0 0"
b0 /"
b111111 ."
b111111111111111111111111 -"
b11111111111111111111111111111100 ,"
b0 +"
b0 *"
b0 )"
b10 ("
b100 '"
b0 &"
b10 %"
b0 $"
b0 #"
b0 ""
b11111111111111111111111111111100 !"
b0 ~
b10 }
b0 |
0{
0z
b10 y
0x
b0 w
b0 v
1u
b0 t
b0 s
b0 r
b0 q
0p
0o
0n
0m
0l
0k
0j
0i
0h
0g
0f
0e
b0 d
b0 c
b11111111111111111111111111111100 b
b0 a
b0 `
0_
0^
0]
b100 \
b0 [
b0 Z
0Y
0X
0W
0V
b0 U
b0 T
1S
0R
1Q
0P
0O
0N
b0 M
b0 L
b0 K
b0 J
b0 I
0H
0G
b0 F
b0 E
b0 D
b0 C
b0 B
b0 A
b0 @
b0 ?
b0 >
b0 =
b0 <
b0 ;
b0 :
b0 9
b0 8
b0 7
b0 6
b0 5
b0 4
b0 3
b0 2
11
00
b0 /
b0 .
b0 -
b0 ,
0+
b10000000000000000000000000000011 *
bx )
b0 (
b0 '
0&
0%
b0 $
b0 #
b0 "
b0 !
$end
#5
b100000 7#
b1000000 6"
b100000 8#
1%
#10
0%
#15
b100000 7#
b1000000 6"
b100000 8#
1%
#20
b1 '
0%
1&
#25
bx y
bx %"
bx ("
b1 0"
10
b11111111111111111111111111111100 a
b11111111111111111111111111111100 2"
b11111111111111111111111111111100 D"
b11111111111111111111111111111100 I"
1R
1O
1o"
b10 |
b10 $"
b10 X"
b10 i"
b100 [
b100 g"
b100 |"
b100000000010000000000000000001 q
b100000000010000000000000000001 y"
b100000000010000000000000000001 $#
b1000 \
b1000 '"
b1000 w"
b1000 ,#
b100 Z
b100 &"
b100 1"
b100 ##
b100 /#
b100000 8#
1%
#30
b10 '
0%
#35
b10 0"
b1 3
b1 ^"
b1 :#
1{
b0 }
b0 8"
b0 W"
1Q
0S
b1100 \
b1100 '"
b1100 w"
b1100 ,#
b1000 Z
b1000 &"
b1000 1"
b1000 ##
b1000 /#
b100000000010010000000000000001 q
b100000000010010000000000000001 y"
b100000000010010000000000000001 $#
b1 I
b1 f"
b1 }"
b1000 [
b1000 g"
b1000 |"
b1 r
b1 z"
b1 9#
b10000000000000000001 4
b10000000000000000001 x"
b10000000000000000001 .#
b1000 5
b1000 T"
b1000 _"
b1000 "#
b1000 3#
b1000 d
b1000 7"
b1000 {"
b0 b
b0 !"
b0 <"
b100 `
b100 ~
b100 C"
b100 h"
b100 l"
1P
1J"
b100000 8#
1%
#40
b11 '
0%
#45
01
b1 :
b1 +"
b1 ?"
b0 ."
b0 -"
b100 v
b100 +#
b1000 A
b1000 >"
b1 E
b1 )"
b10 y
b10 %"
b10 ("
b11 0"
1N
b0 ,"
b100 c
b100 E"
b100 H"
b0 a
b0 2"
b0 D"
b0 I"
0R
1z
b0 |
b0 $"
b0 X"
b0 i"
b1000 b
b1000 !"
b1000 <"
b1000 `
b1000 ~
b1000 C"
b1000 h"
b1000 l"
b1 2
b1 ""
b1 ]"
b1 v"
b1 J
b1 #"
b1 Y"
b1 p"
b1000 6
b1000 O"
b1000 U"
b1000 `"
b1000 u"
b1100 [
b1100 g"
b1100 |"
b10010000000000000001 4
b10010000000000000001 x"
b10010000000000000001 .#
b1001 5
b1001 T"
b1001 _"
b1001 "#
b1001 3#
b100000000010100000000000000010 q
b100000000010100000000000000010 y"
b100000000010100000000000000010 $#
b10000 \
b10000 '"
b10000 w"
b10000 ,#
b1100 Z
b1100 &"
b1100 1"
b1100 ##
b1100 /#
b100000 8#
1%
#50
b100 '
0%
#55
b100 0"
b10 3
b10 ^"
b10 :#
b1001 A
b1001 >"
b1 ."
b1000 v
b1000 +#
b10100 \
b10100 '"
b10100 w"
b10100 ,#
b10000 Z
b10000 &"
b10000 1"
b10000 ##
b10000 /#
b100000000010110000000000100000 q
b100000000010110000000000100000 y"
b100000000010110000000000100000 $#
b10 I
b10 f"
b10 }"
b10000 [
b10000 g"
b10000 |"
b10 r
b10 z"
b10 9#
b10100000000000000010 4
b10100000000000000010 x"
b10100000000000000010 .#
b1010 5
b1010 T"
b1010 _"
b1010 "#
b1010 3#
b1100 b
b1100 !"
b1100 <"
b1100 `
b1100 ~
b1100 C"
b1100 h"
b1100 l"
b1001 6
b1001 O"
b1001 U"
b1001 `"
b1001 u"
b100 ,"
b1000 c
b1000 E"
b1000 H"
b1000 C
b1000 ="
b1000 N"
b1000 &#
b1000 L"
b1 #
b1 -
b1 9
b1 9"
b1 @"
b1 M"
b1 '#
b1 <#
b1 A#
00
b1000 a
b1000 2"
b1000 D"
b1000 I"
b100000 8#
1%
#60
b101 '
0%
#65
b10 :
b10 +"
b10 ?"
b1 L
b1 6#
b1 >#
b1 C#
b1 G#
b10 ."
b1100 v
b1100 +#
b10 E
b10 )"
b10 y
b10 %"
b10 ("
b1010 A
b1010 >"
b100000 3
b100000 ^"
b100000 :#
b101 0"
b1 !
b1 /
b1 M
b1 )#
b1 F#
b1000 ?
b1000 Q"
b1000 *#
b1000 1#
b1000 ,"
b1100 c
b1100 E"
b1100 H"
b1001 C
b1001 ="
b1001 N"
b1001 &#
b1001 L"
b1100 a
b1100 2"
b1100 D"
b1100 I"
b10100 b
b10100 !"
b10100 <"
b10000 `
b10000 ~
b10000 C"
b10000 h"
b10000 l"
b10 2
b10 ""
b10 ]"
b10 v"
b10 J
b10 #"
b10 Y"
b10 p"
b1010 6
b1010 O"
b1010 U"
b1010 `"
b1010 u"
b100000 I
b100000 f"
b100000 }"
b10100 [
b10100 g"
b10100 |"
b100000 r
b100000 z"
b100000 9#
b10110000000000100000 4
b10110000000000100000 x"
b10110000000000100000 .#
b1011 5
b1011 T"
b1011 _"
b1011 "#
b1011 3#
b10001010010110000000000000101 q
b10001010010110000000000000101 y"
b10001010010110000000000000101 $#
b11000 \
b11000 '"
b11000 w"
b11000 ,#
b10100 Z
b10100 &"
b10100 1"
b10100 ##
b10100 /#
b100000 8#
1%
#70
b110 '
0%
#75
b100000 :
b100000 +"
b100000 ?"
b110 0"
b101 3
b101 ^"
b101 :#
b1 }
b1 8"
b1 W"
1_
0{
0Q
b100000 E
b100000 )"
b10 y
b10 %"
b10 ("
b1011 A
b1011 >"
b11 ."
b10000 v
b10000 +#
b11100 \
b11100 '"
b11100 w"
b11100 ,#
b11000 Z
b11000 &"
b11000 1"
b11000 ##
b11000 /#
b1001010000110000000100000 q
b1001010000110000000100000 y"
b1001010000110000000100000 $#
b101 I
b101 f"
b101 }"
b11000 [
b11000 g"
b11000 |"
b101 r
b101 z"
b101 9#
b1010010110000000000000101 4
b1010010110000000000000101 x"
b1010010110000000000000101 .#
b1010 7
b1010 V"
b1010 a"
b1010 !#
b1010 2#
b100 d
b100 7"
b100 {"
b10010000 b
b10010000 !"
b10010000 <"
b10100 `
b10100 ~
b10100 C"
b10100 h"
b10100 l"
b100000 2
b100000 ""
b100000 ]"
b100000 v"
b100000 J
b100000 #"
b100000 Y"
b100000 p"
b1011 6
b1011 O"
b1011 U"
b1011 `"
b1011 u"
b1100 ,"
b10000 c
b10000 E"
b10000 H"
b1010 C
b1010 ="
b1010 N"
b1010 &#
b1010 L"
b10 #
b10 -
b10 9
b10 9"
b10 @"
b10 M"
b10 '#
b10 <#
b10 A#
b10100 a
b10100 2"
b10100 D"
b10100 I"
b1001 ?
b1001 Q"
b1001 *#
b1001 1#
b100000 8#
1%
#80
b111 '
0%
#85
b11111111111111111111111111100010 :
b11111111111111111111111111100010 +"
b11111111111111111111111111100010 ?"
b10 L
b10 6#
b10 >#
b10 C#
b10 G#
b100 ."
b10100 v
b10100 +#
b10 F
b10 *"
b10 ?#
b100000 D
b100000 B"
b100000 D#
b100000 E
b100000 )"
b110 y
b110 %"
b110 ("
b10 s
b10 S"
b10 B#
b1 t
b1 R"
b1 =#
b110000000100000 3
b110000000100000 ^"
b110000000100000 :#
b1 <
b1 b"
b1 4#
b1 >
b1 c"
b1 5#
1Q
1S
b10 }
b10 8"
b10 W"
0_
b111 0"
b10 !
b10 /
b10 M
b10 )#
b10 F#
b1010 ?
b1010 Q"
b1010 *#
b1010 1#
b10000 ,"
b10100 c
b10100 E"
b10100 H"
b1011 C
b1011 ="
b1011 N"
b1011 &#
b1011 L"
b100000 #
b100000 -
b100000 9
b100000 9"
b100000 @"
b100000 M"
b100000 '#
b100000 <#
b100000 A#
b10010000 a
b10010000 2"
b10010000 D"
b10010000 I"
0O
0o"
1]
1m"
0z
b1 |
b1 $"
b1 X"
b1 i"
b101000 b
b101000 !"
b101000 <"
b11000 `
b11000 ~
b11000 C"
b11000 h"
b11000 l"
b101 2
b101 ""
b101 ]"
b101 v"
b101 J
b101 #"
b101 Y"
b101 p"
b1010 8
b1010 P"
b1010 \"
b1010 t"
b100000 I
b100000 f"
b100000 }"
b11100 [
b11100 g"
b11100 |"
b110000000100000 r
b110000000100000 z"
b110000000100000 9#
b1100 @
b1100 d"
b1100 ~"
b1000 5
b1000 T"
b1000 _"
b1000 "#
b1000 3#
b1001010000110000000100000 4
b1001010000110000000100000 x"
b1001010000110000000100000 .#
b1001 7
b1001 V"
b1001 a"
b1001 !#
b1001 2#
b0 d
b0 7"
b0 {"
b1001000000100000000100000 q
b1001000000100000000100000 y"
b1001000000100000000100000 $#
b100000 \
b100000 '"
b100000 w"
b100000 ,#
b11100 Z
b11100 &"
b11100 1"
b11100 ##
b11100 /#
b100000 8#
1%
#90
b1000 '
0%
#95
b10 :
b10 +"
b10 ?"
b1 E
b1 )"
b1000 0"
b100000000100000 3
b100000000100000 ^"
b100000000100000 :#
b0 <
b0 b"
b0 4#
b10 y
b10 %"
b10 ("
b1100 A
b1100 >"
b101 ."
b11000 v
b11000 +#
b1 F
b1 *"
b1 ?#
b1 D
b1 B"
b1 D#
b100000 L
b100000 6#
b100000 >#
b100000 C#
b100000 G#
b0 s
b0 S"
b0 B#
b0 t
b0 R"
b0 =#
b100100 \
b100100 '"
b100100 w"
b100100 ,#
b100000 Z
b100000 &"
b100000 1"
b100000 ##
b100000 /#
b1100000000100100000100000 q
b1100000000100100000100000 y"
b1100000000100100000100000 $#
b100000 [
b100000 g"
b100000 |"
b100000000100000 r
b100000000100000 z"
b100000000100000 9#
b1000 @
b1000 d"
b1000 ~"
b1001000000100000000100000 4
b1001000000100000000100000 x"
b1001000000100000000100000 .#
b0 5
b0 T"
b0 _"
b0 "#
b0 3#
1R
1O
1o"
0]
0m"
b10 |
b10 $"
b10 X"
b10 i"
b11000000010011000 b
b11000000010011000 !"
b11000000010011000 <"
b11100 `
b11100 ~
b11100 C"
b11100 h"
b11100 l"
b1 ;
b1 ["
b1 @#
b1 s"
b1 =
b1 Z"
b1 ;#
b1 r"
b110000000100000 2
b110000000100000 ""
b110000000100000 ]"
b110000000100000 v"
b100000 J
b100000 #"
b100000 Y"
b100000 p"
b1100 B
b1100 e"
b1100 q"
b1000 6
b1000 O"
b1000 U"
b1000 `"
b1000 u"
b1001 8
b1001 P"
b1001 \"
b1001 t"
b10100 ,"
b11000 c
b11000 E"
b11000 H"
b100000 "
b100000 .
b100000 K
b100000 :"
b100000 A"
b100000 K"
b11111111111111111111111111100010 #
b11111111111111111111111111100010 -
b11111111111111111111111111100010 9
b11111111111111111111111111100010 9"
b11111111111111111111111111100010 @"
b11111111111111111111111111100010 M"
b11111111111111111111111111100010 '#
b11111111111111111111111111100010 <#
b11111111111111111111111111100010 A#
b101000 a
b101000 2"
b101000 D"
b101000 I"
0P
0J"
1^
b100000 !
b100000 /
b100000 M
b100000 )#
b100000 F#
b1011 ?
b1011 Q"
b1011 *#
b1011 1#
b100000 8#
1%
#100
b1001 '
0%
