sim/test_top.vcd
$date
	Thu Dec 25 09:02:41 2025
$end
$version
	Icarus Verilog
$end
$timescale
	1ns
$end
$scope module Testbench $end
$var wire 32 ! addr_M [31:0] $end
$var wire 32 " data_M [31:0] $end
$var wire 32 # data_R [31:0] $end
$var reg 5 $ add_R [4:0] $end
$var reg 1 % clk $end
$var reg 1 & rst_n $end
$var integer 32 ' cycle_count [31:0] $end
$var integer 32 ( errors [31:0] $end
$var integer 32 ) i [31:0] $end
$var integer 32 * log_file [31:0] $end
$scope module uut $end
$var wire 1 + Miss_Prediction $end
$var wire 5 , add_R [4:0] $end
$var wire 32 - addr_M [31:0] $end
$var wire 1 % clk $end
$var wire 32 . data_M [31:0] $end
$var wire 32 / data_R [31:0] $end
$var wire 1 & rst_n $end
$var wire 1 0 zero_EX_MEM $end
$var wire 1 1 zero $end
$var wire 32 2 word_ID_EX [31:0] $end
$var wire 32 3 word [31:0] $end
$var wire 26 4 target [25:0] $end
$var wire 5 5 rs2_IF_ID [4:0] $end
$var wire 5 6 rs2_ID_EX [4:0] $end
$var wire 5 7 rs1_IF_ID [4:0] $end
$var wire 5 8 rs1_ID_EX [4:0] $end
$var wire 32 9 result_EX_MEM [31:0] $end
$var wire 32 : result [31:0] $end
$var wire 32 ; read_data2_ID_EX [31:0] $end
$var wire 32 < read_data2 [31:0] $end
$var wire 32 = read_data1_ID_EX [31:0] $end
$var wire 32 > read_data1 [31:0] $end
$var wire 5 ? rd_MEM_WB [4:0] $end
$var wire 5 @ rd_IF_ID [4:0] $end
$var wire 5 A rd_ID_EX_mux [4:0] $end
$var wire 5 B rd_ID_EX [4:0] $end
$var wire 5 C rd_EX_MEM [4:0] $end
$var wire 32 D out_mux_f2 [31:0] $end
$var wire 32 E oprd2 [31:0] $end
$var wire 32 F oprd1 [31:0] $end
$var wire 1 G jr $end
$var wire 1 H jal $end
$var wire 6 I funct_IF_ID [5:0] $end
$var wire 6 J funct_ID_EX [5:0] $end
$var wire 32 K Write_Data_EX_MEM [31:0] $end
$var wire 32 L Write_Data [31:0] $end
$var wire 32 M Result_MEM_WB [31:0] $end
$var wire 1 N Reg_Write_MEM_WB $end
$var wire 1 O Reg_Write_ID_EX $end
$var wire 1 P Reg_Write_EX_MEM $end
$var wire 1 Q Reg_Write $end
$var wire 1 R RegDst_ID_EX $end
$var wire 1 S RegDst $end
$var wire 32 T Read_Data_MEM_WB [31:0] $end
$var wire 32 U Read_Data [31:0] $end
$var wire 1 V Predict_Taken_IF_ID $end
$var wire 1 W Predict_Taken_ID_EX $end
$var wire 1 X Predict_Taken_EX_MEM $end
$var wire 1 Y Pcsrc $end
$var wire 32 Z Pc_out [31:0] $end
$var wire 32 [ Pc_4_IF_ID [31:0] $end
$var wire 32 \ Pc_4 [31:0] $end
$var wire 1 ] PcSrc_ID_EX $end
$var wire 1 ^ PcSrc_EX_MEM $end
$var wire 1 _ PcSrc $end
$var wire 32 ` PC_ID_EX [31:0] $end
$var wire 32 a PC_Branch_EX_MEM [31:0] $end
$var wire 32 b PC_Branch [31:0] $end
$var wire 32 c PC_4_EX_MEM [31:0] $end
$var wire 6 d Opcode_IF_ID [5:0] $end
$var wire 1 e Mem_to_Reg_MEM_WB $end
$var wire 1 f Mem_to_Reg_ID_EX $end
$var wire 1 g Mem_to_Reg_EX_MEM $end
$var wire 1 h Mem_to_Reg $end
$var wire 1 i Mem_Write_ID_EX $end
$var wire 1 j Mem_Write_EX_MEM $end
$var wire 1 k Mem_Write $end
$var wire 1 l Mem_Read_ID_EX $end
$var wire 1 m Mem_Read_EX_MEM $end
$var wire 1 n Mem_Read $end
$var wire 1 o LU_hazard $end
$var wire 1 p Jump $end
$var wire 32 q Instruction [31:0] $end
$var wire 16 r Imediate_IF_ID [15:0] $end
$var wire 2 s F2 [1:0] $end
$var wire 2 t F1 [1:0] $end
$var wire 32 u Correct_Address [31:0] $end
$var wire 32 v BTB_Predicted_Target [31:0] $end
$var wire 1 w BTB_Predict_Taken $end
$var wire 4 x ALU_Operation [3:0] $end
$var wire 1 y ALUSrc_ID_EX $end
$var wire 1 z ALUSrc $end
$var wire 4 { ALUOp_ID_EX [3:0] $end
$var wire 4 | ALUOp [3:0] $end
$scope module ALU_Branch_uut $end
$var wire 32 } PC_ID_EX [31:0] $end
$var wire 32 ~ PC_Branch [31:0] $end
$var wire 32 !" Immediate [31:0] $end
$upscope $end
$scope module ALU_Control_uut $end
$var wire 6 "" funct [5:0] $end
$var wire 4 #" ALUOp [3:0] $end
$var reg 4 $" ALU_Operation [3:0] $end
$upscope $end
$scope module ALU_pc_uut $end
$var wire 32 %" Pc_out [31:0] $end
$var wire 32 &" Pc_4 [31:0] $end
$upscope $end
$scope module ALU_uut $end
$var wire 4 '" ALU_Operation [3:0] $end
$var wire 32 (" oprd2 [31:0] $end
$var wire 32 )" oprd1 [31:0] $end
$var reg 32 *" result [31:0] $end
$var reg 1 1 zero $end
$upscope $end
$scope module BTB_uut $end
$var wire 32 +" PC_Update [31:0] $end
$var wire 1 % clk $end
$var wire 1 & rst_n $end
$var wire 24 ," write_tag [23:0] $end
$var wire 6 -" write_index [5:0] $end
$var wire 24 ." read_tag [23:0] $end
$var wire 6 /" read_index [5:0] $end
$var wire 1 ^ is_Branch $end
$var wire 32 0" PC_IF [31:0] $end
$var wire 32 1" Actual_Target [31:0] $end
$var wire 1 Y Actual_Taken $end
$var reg 1 w Predict_Taken $end
$var reg 32 2" Predicted_Target [31:0] $end
$var reg 2 3" state [1:0] $end
$var integer 32 4" i [31:0] $end
$upscope $end
$scope module Control_unit_uut $end
$var wire 6 5" Opcode_IF_ID [5:0] $end
$var reg 4 6" ALUOp [3:0] $end
$var reg 1 z ALUSrc $end
$var reg 1 p Jump $end
$var reg 1 n Mem_Read $end
$var reg 1 k Mem_Write $end
$var reg 1 h Mem_to_Reg $end
$var reg 1 _ PcSrc $end
$var reg 1 S RegDst $end
$var reg 1 Q Reg_Write $end
$upscope $end
$scope module Data_mem_uut $end
$var wire 1 % clk $end
$var wire 1 & rst_n $end
$var wire 32 7" result_EX_MEM [31:0] $end
$var wire 32 8" Write_Data_EX_MEM [31:0] $end
$var wire 32 9" Read_Data [31:0] $end
$var wire 1 j Mem_Write_EX_MEM $end
$var wire 1 m Mem_Read_EX_MEM $end
$upscope $end
$scope module EX_MEM_uut $end
$var wire 1 j Mem_Write_EX_MEM $end
$var wire 1 g Mem_to_Reg_EX_MEM $end
$var wire 32 :" PC_Branch [31:0] $end
$var wire 1 P Reg_Write_EX_MEM $end
$var wire 32 ;" Write_Data_EX_MEM [31:0] $end
$var wire 1 % clk $end
$var wire 5 <" rd_EX_MEM [4:0] $end
$var wire 5 =" rd_ID_EX_mux [4:0] $end
$var wire 32 >" result [31:0] $end
$var wire 1 & rst_n $end
$var wire 1 1 zero $end
$var wire 1 0 zero_EX_MEM $end
$var wire 32 ?" result_EX_MEM [31:0] $end
$var wire 32 @" Write_Data [31:0] $end
$var wire 1 O Reg_Write_ID_EX $end
$var wire 1 W Predict_Taken_ID_EX $end
$var wire 1 X Predict_Taken_EX_MEM $end
$var wire 1 Y Pcsrc $end
$var wire 1 ] PcSrc_ID_EX $end
$var wire 1 ^ PcSrc_EX_MEM $end
$var wire 32 A" PC_ID_EX [31:0] $end
$var wire 32 B" PC_Branch_EX_MEM [31:0] $end
$var wire 32 C" PC_4_EX_MEM [31:0] $end
$var wire 1 f Mem_to_Reg_ID_EX $end
$var wire 1 i Mem_Write_ID_EX $end
$var wire 1 l Mem_Read_ID_EX $end
$var wire 1 m Mem_Read_EX_MEM $end
$var reg 1 m Mem_Read_r $end
$var reg 1 D" Mem_Write_r $end
$var reg 1 E" Mem_to_Reg_r $end
$var reg 32 F" PC_4_r [31:0] $end
$var reg 32 G" PC_Branch_r [31:0] $end
$var reg 1 ^ PcSrc_r $end
$var reg 1 X Predict_Taken_r $end
$var reg 1 H" Reg_Write_r $end
$var reg 32 I" Write_Data_r [31:0] $end
$var reg 5 J" rd_ID_EX_r [4:0] $end
$var reg 32 K" result_r [31:0] $end
$var reg 1 0 zero_r $end
$upscope $end
$scope module Enable_Branch_uut $end
$var wire 1 ^ PcSrc_EX_MEM $end
$var wire 1 Y Pcsrc $end
$var wire 1 0 zero_EX_MEM $end
$upscope $end
$scope module Forwarding_unit_uut $end
$var wire 1 P Reg_Write_EX_MEM $end
$var wire 5 L" rd_EX_MEM [4:0] $end
$var wire 5 M" rs2_ID_EX [4:0] $end
$var wire 5 N" rs1_ID_EX [4:0] $end
$var wire 5 O" rd_MEM_WB [4:0] $end
$var wire 1 N Reg_Write_MEM_WB $end
$var reg 2 P" F1 [1:0] $end
$var reg 2 Q" F2 [1:0] $end
$upscope $end
$scope module Hazard_detect_uut $end
$var wire 1 o LU_hazard $end
$var wire 5 R" rs2_IF_ID [4:0] $end
$var wire 5 S" rs2_ID_EX [4:0] $end
$var wire 5 T" rs1_IF_ID [4:0] $end
$var wire 1 l Mem_Read_ID_EX $end
$upscope $end
$scope module ID_EX_uut $end
$var wire 4 U" ALUOp [3:0] $end
$var wire 4 V" ALUOp_ID_EX [3:0] $end
$var wire 1 z ALUSrc $end
$var wire 1 n Mem_Read $end
$var wire 1 k Mem_Write $end
$var wire 1 i Mem_Write_ID_EX $end
$var wire 1 h Mem_to_Reg $end
$var wire 1 f Mem_to_Reg_ID_EX $end
$var wire 1 _ PcSrc $end
$var wire 1 ] PcSrc_ID_EX $end
$var wire 1 + Pcsrc $end
$var wire 1 W Predict_Taken_ID_EX $end
$var wire 1 S RegDst $end
$var wire 1 Q Reg_Write $end
$var wire 1 O Reg_Write_ID_EX $end
$var wire 1 % clk $end
$var wire 6 W" funct_ID_EX [5:0] $end
$var wire 32 X" read_data1_ID_EX [31:0] $end
$var wire 32 Y" read_data2_ID_EX [31:0] $end
$var wire 5 Z" rs1_ID_EX [4:0] $end
$var wire 1 & rst_n $end
$var wire 32 [" word_ID_EX [31:0] $end
$var wire 32 \" word [31:0] $end
$var wire 5 ]" rs2_IF_ID [4:0] $end
$var wire 5 ^" rs2_ID_EX [4:0] $end
$var wire 5 _" rs1_IF_ID [4:0] $end
$var wire 32 `" read_data2 [31:0] $end
$var wire 32 a" read_data1 [31:0] $end
$var wire 5 b" rd_IF_ID [4:0] $end
$var wire 5 c" rd_ID_EX [4:0] $end
$var wire 6 d" funct_IF_ID [5:0] $end
$var wire 1 R RegDst_ID_EX $end
$var wire 1 V Predict_Taken_IF_ID $end
$var wire 32 e" Pc_4_IF_ID [31:0] $end
$var wire 32 f" PC_ID_EX [31:0] $end
$var wire 1 l Mem_Read_ID_EX $end
$var wire 1 y ALUSrc_ID_EX $end
$var reg 4 g" ALUOp_r [3:0] $end
$var reg 1 y ALUSrc_r $end
$var reg 1 l Mem_Read_r $end
$var reg 1 h" Mem_Write_r $end
$var reg 1 i" Mem_to_Reg_r $end
$var reg 32 j" PC_r [31:0] $end
$var reg 1 k" PcSrc_r $end
$var reg 1 l" Predict_Taken_r $end
$var reg 1 R RegDst_r $end
$var reg 1 m" Reg_Write_r $end
$var reg 6 n" funct_r [5:0] $end
$var reg 5 o" rd_r [4:0] $end
$var reg 32 p" read_data1_r [31:0] $end
$var reg 32 q" read_data2_r [31:0] $end
$var reg 5 r" rs1_r [4:0] $end
$var reg 5 s" rs2_r [4:0] $end
$var reg 32 t" word_r [31:0] $end
$upscope $end
$scope module IF_ID_uut $end
$var wire 1 p Jump $end
$var wire 1 o LU_hazard $end
$var wire 32 u" Pc_out [31:0] $end
$var wire 1 + Pcsrc $end
$var wire 1 w Predict_Taken_IF $end
$var wire 1 % clk $end
$var wire 1 G jr $end
$var wire 1 & rst_n $end
$var wire 26 v" target [25:0] $end
$var wire 1 H jal $end
$var wire 32 w" Instruction [31:0] $end
$var reg 16 x" Imediate_IF_ID [15:0] $end
$var reg 6 y" Opcode_IF_ID [5:0] $end
$var reg 32 z" Pc_4_IF_ID [31:0] $end
$var reg 1 V Predict_Taken_IF_ID $end
$var reg 6 {" funct_IF_ID [5:0] $end
$var reg 5 |" rd_IF_ID [4:0] $end
$var reg 5 }" rs1_IF_ID [4:0] $end
$var reg 5 ~" rs2_IF_ID [4:0] $end
$upscope $end
$scope module Instruction_mem_uut $end
$var wire 1 + Pcsrc $end
$var wire 1 % clk $end
$var wire 1 & rst_n $end
$var wire 32 !# Pc_out [31:0] $end
$var reg 32 "# Instruction [31:0] $end
$upscope $end
$scope module MEM_WB_uut $end
$var wire 1 g Mem_to_Reg_EX_MEM $end
$var wire 32 ## Read_Data [31:0] $end
$var wire 1 P Reg_Write_EX_MEM $end
$var wire 1 % clk $end
$var wire 5 $# rd_EX_MEM [4:0] $end
$var wire 32 %# result_EX_MEM [31:0] $end
$var wire 1 & rst_n $end
$var reg 1 e Mem_to_Reg_MEM_WB $end
$var reg 32 &# Read_Data_MEM_WB [31:0] $end
$var reg 1 N Reg_Write_MEM_WB $end
$var reg 32 '# Result_MEM_WB [31:0] $end
$var reg 5 (# rd_MEM_WB [4:0] $end
$upscope $end
$scope module PC_uut $end
$var wire 32 )# Correct_Address [31:0] $end
$var wire 1 p Jump $end
$var wire 1 o LU_hazard $end
$var wire 1 + Miss_Prediction $end
$var wire 32 *# Pc_4 [31:0] $end
$var wire 1 w Predict_Taken $end
$var wire 32 +# Predicted_Target [31:0] $end
$var wire 1 % clk $end
$var wire 1 H jal $end
$var wire 1 G jr $end
$var wire 1 & rst_n $end
$var wire 26 ,# target [25:0] $end
$var reg 32 -# Pc_out [31:0] $end
$var reg 32 .# r_a [31:0] $end
$upscope $end
$scope module Reg_file_uut $end
$var wire 1 N Reg_Write_MEM_WB $end
$var wire 1 % clk $end
$var wire 5 /# rd_MEM_WB [4:0] $end
$var wire 5 0# rs1_IF_ID [4:0] $end
$var wire 5 1# rs2_IF_ID [4:0] $end
$var wire 1 & rst_n $end
$var wire 32 2# read_data2 [31:0] $end
$var wire 32 3# read_data1 [31:0] $end
$var wire 32 4# Write_Data [31:0] $end
$scope begin $ivl_for_loop0 $end
$var integer 32 5# i [31:0] $end
$upscope $end
$scope begin $ivl_for_loop1 $end
$var integer 32 6# i [31:0] $end
$upscope $end
$upscope $end
$scope module Sign_extend_uut $end
$var wire 16 7# Imediate_IF_ID [15:0] $end
$var wire 32 8# word [31:0] $end
$upscope $end
$scope module mux_3x1_32bit_A_uut $end
$var wire 32 9# data0 [31:0] $end
$var wire 32 :# data2 [31:0] $end
$var wire 2 ;# sel [1:0] $end
$var wire 32 <# data1 [31:0] $end
$var reg 32 =# data_out [31:0] $end
$upscope $end
$scope module mux_3x1_32bit_B_uut $end
$var wire 32 ># data0 [31:0] $end
$var wire 32 ?# data2 [31:0] $end
$var wire 2 @# sel [1:0] $end
$var wire 32 A# data1 [31:0] $end
$var reg 32 B# data_out [31:0] $end
$upscope $end
$scope module mux_WB_uut $end
$var wire 1 e Mem_to_Reg_MEM_WB $end
$var wire 32 C# Read_Data_MEM_WB [31:0] $end
$var wire 32 D# Result_MEM_WB [31:0] $end
$var wire 32 E# Write_Data [31:0] $end
$upscope $end
$upscope $end
$upscope $end
$enddefinitions $end
$comment Show the parameter values. $end
$dumpall
$end
#0
$dumpvars
b0 E#
b0 D#
b0 C#
b0 B#
b0 A#
b0 @#
b0 ?#
b0 >#
b0 =#
b0 <#
b0 ;#
b0 :#
b0 9#
b0 8#
b0 7#
bx 6#
b100000 5#
b0 4#
b0 3#
b0 2#
b0 1#
b0 0#
b0 /#
b0 .#
b0 -#
b0 ,#
b0 +#
b100 *#
b0 )#
b0 (#
b0 '#
b0 &#
b0 %#
b0 $#
b0 ##
b0 "#
b0 !#
b0 ~"
b0 }"
b0 |"
b0 {"
b0 z"
b0 y"
b0 x"
b0 w"
b0 v"
b100 u"
b0 t"
b0 s"
b0 r"
b0 q"
b0 p"
b0 o"
b0 n"
0m"
0l"
0k"
b0 j"
0i"
0h"
b0 g"
b0 f"
b0 e"
b0 d"
b0 c"
b0 b"
b0 a"
b0 `"
b0 _"
b0 ^"
b0 ]"
b0 \"
b0 ["
b0 Z"
b0 Y"
b0 X"
b0 W"
b0 V"
b10 U"
b0 T"
b0 S"
b0 R"
b0 Q"
b0 P"
b0 O"
b0 N"
b0 M"
b0 L"
b0 K"
b0 J"
b0 I"
0H"
b0 G"
b0 F"
0E"
0D"
b0 C"
b0 B"
b0 A"
b0 @"
b0 ?"
b0 >"
b0 ="
b0 <"
b0 ;"
b11111111111111111111111111111100 :"
b0 9"
b0 8"
b0 7"
b10 6"
b0 5"
b1000000 4"
bx 3"
b0 2"
b0 1"
b0 0"
b0 /"
b0 ."
b111111 -"
b111111111111111111111111 ,"
b11111111111111111111111111111100 +"
b0 *"
b0 )"
b0 ("
b10 '"
b100 &"
b0 %"
b10 $"
b0 #"
b0 ""
b0 !"
b11111111111111111111111111111100 ~
b0 }
b10 |
b0 {
0z
0y
b10 x
0w
b0 v
b0 u
b0 t
b0 s
b0 r
b0 q
0p
0o
0n
0m
0l
0k
0j
0i
0h
0g
0f
0e
b0 d
b0 c
b11111111111111111111111111111100 b
b0 a
b0 `
0_
0^
0]
b100 \
b0 [
b0 Z
0Y
0X
0W
0V
b0 U
b0 T
1S
0R
1Q
0P
0O
0N
b0 M
b0 L
b0 K
b0 J
b0 I
0H
0G
b0 F
b0 E
b0 D
b0 C
b0 B
b0 A
b0 @
b0 ?
b0 >
b0 =
b0 <
b0 ;
b0 :
b0 9
b0 8
b0 7
b0 6
b0 5
b0 4
b0 3
b0 2
11
00
b0 /
bz .
bz -
b0 ,
0+
b10000000000000000000000000000011 *
bx )
b0 (
b0 '
0&
0%
b0 $
b0 #
bz "
bz !
$end
#5
b100000 5#
b1000000 4"
b100000 6#
1%
#10
0%
#15
b100000 5#
b1000000 4"
b100000 6#
1%
#20
b1 '
0%
1&
#25
bx x
bx $"
bx '"
b1 /"
10
b11111111111111111111111111111100 a
b11111111111111111111111111111100 1"
b11111111111111111111111111111100 B"
b11111111111111111111111111111100 G"
1R
1O
1m"
b10 {
b10 #"
b10 V"
b10 g"
b100 [
b100 e"
b100 z"
b100000000010000000000000000001 q
b100000000010000000000000000001 w"
b100000000010000000000000000001 "#
b1000 \
b1000 &"
b1000 u"
b1000 *#
b100 Z
b100 %"
b100 0"
b100 !#
b100 -#
b100000 6#
1%
#30
b10 '
0%
#35
b10 /"
1z
b0 |
b0 6"
b0 U"
1Q
0S
b1100 \
b1100 &"
b1100 u"
b1100 *#
b1000 Z
b1000 %"
b1000 0"
b1000 !#
b1000 -#
b100000000010010000000000000001 q
b100000000010010000000000000001 w"
b100000000010010000000000000001 "#
b1 I
b1 d"
b1 {"
b1000 [
b1000 e"
b1000 z"
b1 3
b1 \"
b1 8#
b1 r
b1 x"
b1 7#
b10000000000000000001 4
b10000000000000000001 v"
b10000000000000000001 ,#
b1000 5
b1000 R"
b1000 ]"
b1000 ~"
b1000 1#
b1000 d
b1000 5"
b1000 y"
b0 b
b0 ~
b0 :"
b100 `
b100 }
b100 A"
b100 f"
b100 j"
1P
1H"
b100000 6#
1%
#40
b11 '
0%
#45
01
b1 :
b1 *"
b1 >"
b0 -"
b0 ,"
b100 u
b100 )#
b1000 A
b1000 ="
b1 E
b1 ("
b10 x
b10 $"
b10 '"
b11 /"
1N
b0 +"
b100 c
b100 C"
b100 F"
b0 a
b0 1"
b0 B"
b0 G"
0R
1y
b0 {
b0 #"
b0 V"
b0 g"
b1000 b
b1000 ~
b1000 :"
b1000 `
b1000 }
b1000 A"
b1000 f"
b1000 j"
b1 2
b1 !"
b1 ["
b1 t"
b1 J
b1 ""
b1 W"
b1 n"
b1000 6
b1000 M"
b1000 S"
b1000 ^"
b1000 s"
b1100 [
b1100 e"
b1100 z"
b10010000000000000001 4
b10010000000000000001 v"
b10010000000000000001 ,#
b1001 5
b1001 R"
b1001 ]"
b1001 ~"
b1001 1#
b100000000010100000000000000010 q
b100000000010100000000000000010 w"
b100000000010100000000000000010 "#
b10000 \
b10000 &"
b10000 u"
b10000 *#
b1100 Z
b1100 %"
b1100 0"
b1100 !#
b1100 -#
b100000 6#
1%
#50
b100 '
0%
#55
b100 /"
b1001 A
b1001 ="
b1 -"
b1000 u
b1000 )#
b10100 \
b10100 &"
b10100 u"
b10100 *#
b10000 Z
b10000 %"
b10000 0"
b10000 !#
b10000 -#
b100000000010110000000000100000 q
b100000000010110000000000100000 w"
b100000000010110000000000100000 "#
b10 I
b10 d"
b10 {"
b10000 [
b10000 e"
b10000 z"
b10 3
b10 \"
b10 8#
b10 r
b10 x"
b10 7#
b10100000000000000010 4
b10100000000000000010 v"
b10100000000000000010 ,#
b1010 5
b1010 R"
b1010 ]"
b1010 ~"
b1010 1#
b1100 b
b1100 ~
b1100 :"
b1100 `
b1100 }
b1100 A"
b1100 f"
b1100 j"
b1001 6
b1001 M"
b1001 S"
b1001 ^"
b1001 s"
b100 +"
b1000 c
b1000 C"
b1000 F"
b1000 C
b1000 <"
b1000 L"
b1000 $#
b1000 J"
b1 9
b1 7"
b1 ?"
b1 K"
b1 %#
b1 :#
b1 ?#
00
b1000 a
b1000 1"
b1000 B"
b1000 G"
b100000 6#
1%
#60
b101 '
0%
#65
b10 :
b10 *"
b10 >"
b1 L
b1 4#
b1 <#
b1 A#
b1 E#
b10 -"
b1100 u
b1100 )#
b10 E
b10 ("
b10 x
b10 $"
b10 '"
b1010 A
b1010 ="
b101 /"
b1 M
b1 '#
b1 D#
b1000 ?
b1000 O"
b1000 (#
b1000 /#
b1000 +"
b1100 c
b1100 C"
b1100 F"
b1001 C
b1001 <"
b1001 L"
b1001 $#
b1001 J"
b1100 a
b1100 1"
b1100 B"
b1100 G"
b10100 b
b10100 ~
b10100 :"
b10000 `
b10000 }
b10000 A"
b10000 f"
b10000 j"
b10 2
b10 !"
b10 ["
b10 t"
b10 J
b10 ""
b10 W"
b10 n"
b1010 6
b1010 M"
b1010 S"
b1010 ^"
b1010 s"
b100000 I
b100000 d"
b100000 {"
b10100 [
b10100 e"
b10100 z"
b100000 3
b100000 \"
b100000 8#
b100000 r
b100000 x"
b100000 7#
b10110000000000100000 4
b10110000000000100000 v"
b10110000000000100000 ,#
b1011 5
b1011 R"
b1011 ]"
b1011 ~"
b1011 1#
b10001010010110000000000000101 q
b10001010010110000000000000101 w"
b10001010010110000000000000101 "#
b11000 \
b11000 &"
b11000 u"
b11000 *#
b10100 Z
b10100 %"
b10100 0"
b10100 !#
b10100 -#
b100000 6#
1%
#70
b110 '
0%
#75
b100000 :
b100000 *"
b100000 >"
b110 /"
b1 |
b1 6"
b1 U"
1_
0z
0Q
b100000 E
b100000 ("
b10 x
b10 $"
b10 '"
b1011 A
b1011 ="
b11 -"
b10000 u
b10000 )#
b11100 \
b11100 &"
b11100 u"
b11100 *#
b11000 Z
b11000 %"
b11000 0"
b11000 !#
b11000 -#
b1001010000110000000100000 q
b1001010000110000000100000 w"
b1001010000110000000100000 "#
b101 I
b101 d"
b101 {"
b11000 [
b11000 e"
b11000 z"
b101 3
b101 \"
b101 8#
b101 r
b101 x"
b101 7#
b1010010110000000000000101 4
b1010010110000000000000101 v"
b1010010110000000000000101 ,#
b1010 7
b1010 T"
b1010 _"
b1010 }"
b1010 0#
b100 d
b100 5"
b100 y"
b10010000 b
b10010000 ~
b10010000 :"
b10100 `
b10100 }
b10100 A"
b10100 f"
b10100 j"
b100000 2
b100000 !"
b100000 ["
b100000 t"
b100000 J
b100000 ""
b100000 W"
b100000 n"
b1011 6
b1011 M"
b1011 S"
b1011 ^"
b1011 s"
b1100 +"
b10000 c
b10000 C"
b10000 F"
b1010 C
b1010 <"
b1010 L"
b1010 $#
b1010 J"
b10 9
b10 7"
b10 ?"
b10 K"
b10 %#
b10 :#
b10 ?#
b10100 a
b10100 1"
b10100 B"
b10100 G"
b1001 ?
b1001 O"
b1001 (#
b1001 /#
b100000 6#
1%
#80
b111 '
0%
#85
b11111111111111111111111111100010 :
b11111111111111111111111111100010 *"
b11111111111111111111111111100010 >"
b10 L
b10 4#
b10 <#
b10 A#
b10 E#
b100 -"
b10100 u
b10100 )#
b10 F
b10 )"
b10 =#
b100000 D
b100000 @"
b100000 B#
b100000 E
b100000 ("
b110 x
b110 $"
b110 '"
b10 s
b10 Q"
b10 @#
b1 t
b1 P"
b1 ;#
b1 <
b1 `"
b1 2#
b1 #
b1 /
b1 >
b1 a"
b1 3#
1Q
1S
b10 |
b10 6"
b10 U"
0_
b111 /"
b10 M
b10 '#
b10 D#
b1010 ?
b1010 O"
b1010 (#
b1010 /#
b10000 +"
b10100 c
b10100 C"
b10100 F"
b1011 C
b1011 <"
b1011 L"
b1011 $#
b1011 J"
b100000 9
b100000 7"
b100000 ?"
b100000 K"
b100000 %#
b100000 :#
b100000 ?#
b10010000 a
b10010000 1"
b10010000 B"
b10010000 G"
0O
0m"
1]
1k"
0y
b1 {
b1 #"
b1 V"
b1 g"
b101000 b
b101000 ~
b101000 :"
b11000 `
b11000 }
b11000 A"
b11000 f"
b11000 j"
b101 2
b101 !"
b101 ["
b101 t"
b101 J
b101 ""
b101 W"
b101 n"
b1010 8
b1010 N"
b1010 Z"
b1010 r"
b100000 I
b100000 d"
b100000 {"
b11100 [
b11100 e"
b11100 z"
b110000000100000 3
b110000000100000 \"
b110000000100000 8#
b110000000100000 r
b110000000100000 x"
b110000000100000 7#
b1100 @
b1100 b"
b1100 |"
b1000 5
b1000 R"
b1000 ]"
b1000 ~"
b1000 1#
b1001010000110000000100000 4
b1001010000110000000100000 v"
b1001010000110000000100000 ,#
b1001 7
b1001 T"
b1001 _"
b1001 }"
b1001 0#
b0 d
b0 5"
b0 y"
b1001000000100000000100000 q
b1001000000100000000100000 w"
b1001000000100000000100000 "#
b100000 \
b100000 &"
b100000 u"
b100000 *#
b11100 Z
b11100 %"
b11100 0"
b11100 !#
b11100 -#
b100000 6#
1%
#90
b1000 '
0%
#95
b10 :
b10 *"
b10 >"
b1 E
b1 ("
b1000 /"
b0 <
b0 `"
b0 2#
b10 x
b10 $"
b10 '"
b1100 A
b1100 ="
b101 -"
b11000 u
b11000 )#
b1 F
b1 )"
b1 =#
b1 D
b1 @"
b1 B#
b100000 L
b100000 4#
b100000 <#
b100000 A#
b100000 E#
b0 s
b0 Q"
b0 @#
b0 t
b0 P"
b0 ;#
b100100 \
b100100 &"
b100100 u"
b100100 *#
b100000 Z
b100000 %"
b100000 0"
b100000 !#
b100000 -#
b1100000000100100000100000 q
b1100000000100100000100000 w"
b1100000000100100000100000 "#
b100000 [
b100000 e"
b100000 z"
b100000000100000 3
b100000000100000 \"
b100000000100000 8#
b100000000100000 r
b100000000100000 x"
b100000000100000 7#
b1000 @
b1000 b"
b1000 |"
b1001000000100000000100000 4
b1001000000100000000100000 v"
b1001000000100000000100000 ,#
b0 5
b0 R"
b0 ]"
b0 ~"
b0 1#
1R
1O
1m"
0]
0k"
b10 {
b10 #"
b10 V"
b10 g"
b11000000010011000 b
b11000000010011000 ~
b11000000010011000 :"
b11100 `
b11100 }
b11100 A"
b11100 f"
b11100 j"
b1 ;
b1 Y"
b1 >#
b1 q"
b1 =
b1 X"
b1 9#
b1 p"
b110000000100000 2
b110000000100000 !"
b110000000100000 ["
b110000000100000 t"
b100000 J
b100000 ""
b100000 W"
b100000 n"
b1100 B
b1100 c"
b1100 o"
b1000 6
b1000 M"
b1000 S"
b1000 ^"
b1000 s"
b1001 8
b1001 N"
b1001 Z"
b1001 r"
b10100 +"
b11000 c
b11000 C"
b11000 F"
b100000 K
b100000 8"
b100000 ;"
b100000 I"
b11111111111111111111111111100010 9
b11111111111111111111111111100010 7"
b11111111111111111111111111100010 ?"
b11111111111111111111111111100010 K"
b11111111111111111111111111100010 %#
b11111111111111111111111111100010 :#
b11111111111111111111111111100010 ?#
b101000 a
b101000 1"
b101000 B"
b101000 G"
0P
0H"
1^
b100000 M
b100000 '#
b100000 D#
b1011 ?
b1011 O"
b1011 (#
b1011 /#
b100000 6#
1%
#100
b1001 '
0%
